%YAML 1.1
%TAG !u! tag:unity3d.com,2011:
--- !u!29 &1
OcclusionCullingSettings:
  m_ObjectHideFlags: 0
  serializedVersion: 2
  m_OcclusionBakeSettings:
    smallestOccluder: 5
    smallestHole: 0.25
    backfaceThreshold: 100
  m_SceneGUID: 00000000000000000000000000000000
  m_OcclusionCullingData: {fileID: 0}
--- !u!104 &2
RenderSettings:
  m_ObjectHideFlags: 0
  serializedVersion: 7
  m_Fog: 0
  m_FogColor: {r: 0.5, g: 0.5, b: 0.5, a: 1}
  m_FogMode: 3
  m_FogDensity: 0.01
  m_LinearFogStart: 0
  m_LinearFogEnd: 300
  m_AmbientSkyColor: {r: 0.212, g: 0.227, b: 0.259, a: 1}
  m_AmbientEquatorColor: {r: 0.114, g: 0.125, b: 0.133, a: 1}
  m_AmbientGroundColor: {r: 0.047, g: 0.043, b: 0.035, a: 1}
  m_AmbientIntensity: 1
  m_AmbientMode: 0
  m_SkyboxMaterial: {fileID: 10304, guid: 0000000000000000f000000000000000, type: 0}
  m_HaloStrength: 0.5
  m_FlareStrength: 1
  m_FlareFadeSpeed: 3
  m_HaloTexture: {fileID: 0}
  m_SpotCookie: {fileID: 10001, guid: 0000000000000000e000000000000000, type: 0}
  m_DefaultReflectionMode: 0
  m_DefaultReflectionResolution: 128
  m_ReflectionBounces: 1
  m_ReflectionIntensity: 1
  m_CustomReflection: {fileID: 0}
  m_Sun: {fileID: 0}
  m_IndirectSpecularColor: {r: 0.37311926, g: 0.38074008, b: 0.35872707, a: 1}
--- !u!157 &3
LightmapSettings:
  m_ObjectHideFlags: 0
  serializedVersion: 7
  m_GIWorkflowMode: 0
  m_GISettings:
    serializedVersion: 2
    m_BounceScale: 1
    m_IndirectOutputScale: 1
    m_AlbedoBoost: 1
    m_TemporalCoherenceThreshold: 1
    m_EnvironmentLightingMode: 0
    m_EnableBakedLightmaps: 1
    m_EnableRealtimeLightmaps: 1
  m_LightmapEditorSettings:
    serializedVersion: 4
    m_Resolution: 2
    m_BakeResolution: 40
    m_TextureWidth: 1024
    m_TextureHeight: 1024
    m_AO: 0
    m_AOMaxDistance: 1
    m_CompAOExponent: 1
    m_CompAOExponentDirect: 0
    m_Padding: 2
    m_LightmapParameters: {fileID: 0}
    m_LightmapsBakeMode: 1
    m_TextureCompression: 1
    m_DirectLightInLightProbes: 1
    m_FinalGather: 0
    m_FinalGatherFiltering: 1
    m_FinalGatherRayCount: 256
    m_ReflectionCompression: 2
  m_LightingDataAsset: {fileID: 0}
  m_RuntimeCPUUsage: 25
--- !u!196 &4
NavMeshSettings:
  serializedVersion: 2
  m_ObjectHideFlags: 0
  m_BuildSettings:
    serializedVersion: 2
    agentTypeID: 0
    agentRadius: 0.5
    agentHeight: 2
    agentSlope: 45
    agentClimb: 0.4
    ledgeDropHeight: 0
    maxJumpAcrossDistance: 0
    minRegionArea: 2
    manualCellSize: 0
    cellSize: 0.16666667
    accuratePlacement: 0
  m_NavMeshData: {fileID: 0}
--- !u!1001 &55509281
Prefab:
  m_ObjectHideFlags: 0
  serializedVersion: 2
  m_Modification:
    m_TransformParent: {fileID: 0}
    m_Modifications:
    - target: {fileID: 4101320888217054, guid: bdfcf9640068ea24da2d565cc561022b, type: 2}
      propertyPath: m_LocalPosition.x
      value: 4.459999
      objectReference: {fileID: 0}
    - target: {fileID: 4101320888217054, guid: bdfcf9640068ea24da2d565cc561022b, type: 2}
      propertyPath: m_LocalPosition.y
      value: -1.8201828
      objectReference: {fileID: 0}
    - target: {fileID: 4101320888217054, guid: bdfcf9640068ea24da2d565cc561022b, type: 2}
      propertyPath: m_LocalPosition.z
      value: 0
      objectReference: {fileID: 0}
    - target: {fileID: 4101320888217054, guid: bdfcf9640068ea24da2d565cc561022b, type: 2}
      propertyPath: m_LocalRotation.x
      value: -0
      objectReference: {fileID: 0}
    - target: {fileID: 4101320888217054, guid: bdfcf9640068ea24da2d565cc561022b, type: 2}
      propertyPath: m_LocalRotation.y
      value: -0
      objectReference: {fileID: 0}
    - target: {fileID: 4101320888217054, guid: bdfcf9640068ea24da2d565cc561022b, type: 2}
      propertyPath: m_LocalRotation.z
      value: -0
      objectReference: {fileID: 0}
    - target: {fileID: 4101320888217054, guid: bdfcf9640068ea24da2d565cc561022b, type: 2}
      propertyPath: m_LocalRotation.w
      value: 1
      objectReference: {fileID: 0}
    - target: {fileID: 4101320888217054, guid: bdfcf9640068ea24da2d565cc561022b, type: 2}
      propertyPath: m_RootOrder
      value: 3
      objectReference: {fileID: 0}
    m_RemovedComponents: []
  m_ParentPrefab: {fileID: 100100000, guid: bdfcf9640068ea24da2d565cc561022b, type: 2}
  m_IsPrefabParent: 0
--- !u!1001 &63635469
Prefab:
  m_ObjectHideFlags: 0
  serializedVersion: 2
  m_Modification:
    m_TransformParent: {fileID: 0}
    m_Modifications:
    - target: {fileID: 4264601429044516, guid: 9b568d3b8891bb34aa7ad227d08bd0c1, type: 2}
      propertyPath: m_LocalPosition.x
      value: 2.53
      objectReference: {fileID: 0}
    - target: {fileID: 4264601429044516, guid: 9b568d3b8891bb34aa7ad227d08bd0c1, type: 2}
      propertyPath: m_LocalPosition.y
      value: -3.75
      objectReference: {fileID: 0}
    - target: {fileID: 4264601429044516, guid: 9b568d3b8891bb34aa7ad227d08bd0c1, type: 2}
      propertyPath: m_LocalPosition.z
      value: 0
      objectReference: {fileID: 0}
    - target: {fileID: 4264601429044516, guid: 9b568d3b8891bb34aa7ad227d08bd0c1, type: 2}
      propertyPath: m_LocalRotation.x
      value: 0
      objectReference: {fileID: 0}
    - target: {fileID: 4264601429044516, guid: 9b568d3b8891bb34aa7ad227d08bd0c1, type: 2}
      propertyPath: m_LocalRotation.y
      value: 0
      objectReference: {fileID: 0}
    - target: {fileID: 4264601429044516, guid: 9b568d3b8891bb34aa7ad227d08bd0c1, type: 2}
      propertyPath: m_LocalRotation.z
      value: 0
      objectReference: {fileID: 0}
    - target: {fileID: 4264601429044516, guid: 9b568d3b8891bb34aa7ad227d08bd0c1, type: 2}
      propertyPath: m_LocalRotation.w
      value: 1
      objectReference: {fileID: 0}
    - target: {fileID: 4264601429044516, guid: 9b568d3b8891bb34aa7ad227d08bd0c1, type: 2}
      propertyPath: m_RootOrder
      value: 1
      objectReference: {fileID: 0}
    m_RemovedComponents: []
  m_ParentPrefab: {fileID: 100100000, guid: 9b568d3b8891bb34aa7ad227d08bd0c1, type: 2}
  m_IsPrefabParent: 0
--- !u!1001 &336842109
Prefab:
  m_ObjectHideFlags: 0
  serializedVersion: 2
  m_Modification:
    m_TransformParent: {fileID: 0}
    m_Modifications:
    - target: {fileID: 4264601429044516, guid: 9b568d3b8891bb34aa7ad227d08bd0c1, type: 2}
      propertyPath: m_LocalPosition.x
      value: 9.53
      objectReference: {fileID: 0}
    - target: {fileID: 4264601429044516, guid: 9b568d3b8891bb34aa7ad227d08bd0c1, type: 2}
      propertyPath: m_LocalPosition.y
      value: -3.75
      objectReference: {fileID: 0}
    - target: {fileID: 4264601429044516, guid: 9b568d3b8891bb34aa7ad227d08bd0c1, type: 2}
      propertyPath: m_LocalPosition.z
      value: 0
      objectReference: {fileID: 0}
    - target: {fileID: 4264601429044516, guid: 9b568d3b8891bb34aa7ad227d08bd0c1, type: 2}
      propertyPath: m_LocalRotation.x
      value: 0
      objectReference: {fileID: 0}
    - target: {fileID: 4264601429044516, guid: 9b568d3b8891bb34aa7ad227d08bd0c1, type: 2}
      propertyPath: m_LocalRotation.y
      value: 0
      objectReference: {fileID: 0}
    - target: {fileID: 4264601429044516, guid: 9b568d3b8891bb34aa7ad227d08bd0c1, type: 2}
      propertyPath: m_LocalRotation.z
      value: 0
      objectReference: {fileID: 0}
    - target: {fileID: 4264601429044516, guid: 9b568d3b8891bb34aa7ad227d08bd0c1, type: 2}
      propertyPath: m_LocalRotation.w
      value: 1
      objectReference: {fileID: 0}
    - target: {fileID: 4264601429044516, guid: 9b568d3b8891bb34aa7ad227d08bd0c1, type: 2}
      propertyPath: m_RootOrder
      value: 2
      objectReference: {fileID: 0}
    - target: {fileID: 1924555880425294, guid: 9b568d3b8891bb34aa7ad227d08bd0c1, type: 2}
      propertyPath: m_Name
      value: ground3x7 (1)
      objectReference: {fileID: 0}
    m_RemovedComponents: []
  m_ParentPrefab: {fileID: 100100000, guid: 9b568d3b8891bb34aa7ad227d08bd0c1, type: 2}
  m_IsPrefabParent: 0
--- !u!1001 &833702492
Prefab:
  m_ObjectHideFlags: 0
  serializedVersion: 2
  m_Modification:
    m_TransformParent: {fileID: 0}
    m_Modifications:
    - target: {fileID: 4101320888217054, guid: bdfcf9640068ea24da2d565cc561022b, type: 2}
      propertyPath: m_LocalPosition.x
      value: 9.83
      objectReference: {fileID: 0}
    - target: {fileID: 4101320888217054, guid: bdfcf9640068ea24da2d565cc561022b, type: 2}
      propertyPath: m_LocalPosition.y
      value: -1.8887278
      objectReference: {fileID: 0}
    - target: {fileID: 4101320888217054, guid: bdfcf9640068ea24da2d565cc561022b, type: 2}
      propertyPath: m_LocalPosition.z
      value: 0
      objectReference: {fileID: 0}
    - target: {fileID: 4101320888217054, guid: bdfcf9640068ea24da2d565cc561022b, type: 2}
      propertyPath: m_LocalRotation.x
      value: -0
      objectReference: {fileID: 0}
    - target: {fileID: 4101320888217054, guid: bdfcf9640068ea24da2d565cc561022b, type: 2}
      propertyPath: m_LocalRotation.y
      value: -0
      objectReference: {fileID: 0}
    - target: {fileID: 4101320888217054, guid: bdfcf9640068ea24da2d565cc561022b, type: 2}
      propertyPath: m_LocalRotation.z
      value: -0
      objectReference: {fileID: 0}
    - target: {fileID: 4101320888217054, guid: bdfcf9640068ea24da2d565cc561022b, type: 2}
      propertyPath: m_LocalRotation.w
      value: 1
      objectReference: {fileID: 0}
    - target: {fileID: 4101320888217054, guid: bdfcf9640068ea24da2d565cc561022b, type: 2}
      propertyPath: m_RootOrder
      value: 5
      objectReference: {fileID: 0}
    - target: {fileID: 1375895179984002, guid: bdfcf9640068ea24da2d565cc561022b, type: 2}
      propertyPath: m_Name
      value: Door (2)
      objectReference: {fileID: 0}
    - target: {fileID: 114596448009402312, guid: bdfcf9640068ea24da2d565cc561022b,
        type: 2}
      propertyPath: levelToLoad
      value: leveltwo
      objectReference: {fileID: 0}
    - target: {fileID: 114305624868963456, guid: bdfcf9640068ea24da2d565cc561022b,
        type: 2}
      propertyPath: m_Text
      value: Level 3
      objectReference: {fileID: 0}
    m_RemovedComponents: []
  m_ParentPrefab: {fileID: 100100000, guid: bdfcf9640068ea24da2d565cc561022b, type: 2}
  m_IsPrefabParent: 0
--- !u!1001 &1791624886
Prefab:
  m_ObjectHideFlags: 0
  serializedVersion: 2
  m_Modification:
    m_TransformParent: {fileID: 0}
    m_Modifications:
    - target: {fileID: 4101320888217054, guid: bdfcf9640068ea24da2d565cc561022b, type: 2}
      propertyPath: m_LocalPosition.x
      value: 7.2627296
      objectReference: {fileID: 0}
    - target: {fileID: 4101320888217054, guid: bdfcf9640068ea24da2d565cc561022b, type: 2}
      propertyPath: m_LocalPosition.y
      value: -1.8887278
      objectReference: {fileID: 0}
    - target: {fileID: 4101320888217054, guid: bdfcf9640068ea24da2d565cc561022b, type: 2}
      propertyPath: m_LocalPosition.z
      value: 0
      objectReference: {fileID: 0}
    - target: {fileID: 4101320888217054, guid: bdfcf9640068ea24da2d565cc561022b, type: 2}
      propertyPath: m_LocalRotation.x
      value: -0
      objectReference: {fileID: 0}
    - target: {fileID: 4101320888217054, guid: bdfcf9640068ea24da2d565cc561022b, type: 2}
      propertyPath: m_LocalRotation.y
      value: -0
      objectReference: {fileID: 0}
    - target: {fileID: 4101320888217054, guid: bdfcf9640068ea24da2d565cc561022b, type: 2}
      propertyPath: m_LocalRotation.z
      value: -0
      objectReference: {fileID: 0}
    - target: {fileID: 4101320888217054, guid: bdfcf9640068ea24da2d565cc561022b, type: 2}
      propertyPath: m_LocalRotation.w
      value: 1
      objectReference: {fileID: 0}
    - target: {fileID: 4101320888217054, guid: bdfcf9640068ea24da2d565cc561022b, type: 2}
      propertyPath: m_RootOrder
      value: 4
      objectReference: {fileID: 0}
    - target: {fileID: 1375895179984002, guid: bdfcf9640068ea24da2d565cc561022b, type: 2}
      propertyPath: m_Name
      value: Door (1)
      objectReference: {fileID: 0}
    - target: {fileID: 114596448009402312, guid: bdfcf9640068ea24da2d565cc561022b,
        type: 2}
      propertyPath: levelToLoad
      value: leveltwo
      objectReference: {fileID: 0}
    - target: {fileID: 114305624868963456, guid: bdfcf9640068ea24da2d565cc561022b,
        type: 2}
      propertyPath: m_Text
      value: Level 2
      objectReference: {fileID: 0}
    m_RemovedComponents: []
  m_ParentPrefab: {fileID: 100100000, guid: bdfcf9640068ea24da2d565cc561022b, type: 2}
  m_IsPrefabParent: 0
--- !u!1001 &1807297577
Prefab:
  m_ObjectHideFlags: 0
  serializedVersion: 2
  m_Modification:
    m_TransformParent: {fileID: 0}
    m_Modifications:
    - target: {fileID: 4110550130236114, guid: b9fc733a13312c146b4a394c44534c6c, type: 2}
      propertyPath: m_LocalPosition.x
      value: 0
      objectReference: {fileID: 0}
    - target: {fileID: 4110550130236114, guid: b9fc733a13312c146b4a394c44534c6c, type: 2}
      propertyPath: m_LocalPosition.y
      value: 0
      objectReference: {fileID: 0}
    - target: {fileID: 4110550130236114, guid: b9fc733a13312c146b4a394c44534c6c, type: 2}
      propertyPath: m_LocalPosition.z
      value: 0
      objectReference: {fileID: 0}
    - target: {fileID: 4110550130236114, guid: b9fc733a13312c146b4a394c44534c6c, type: 2}
      propertyPath: m_LocalRotation.x
      value: 0
      objectReference: {fileID: 0}
    - target: {fileID: 4110550130236114, guid: b9fc733a13312c146b4a394c44534c6c, type: 2}
      propertyPath: m_LocalRotation.y
      value: 0
      objectReference: {fileID: 0}
    - target: {fileID: 4110550130236114, guid: b9fc733a13312c146b4a394c44534c6c, type: 2}
      propertyPath: m_LocalRotation.z
      value: 0
      objectReference: {fileID: 0}
    - target: {fileID: 4110550130236114, guid: b9fc733a13312c146b4a394c44534c6c, type: 2}
      propertyPath: m_LocalRotation.w
      value: 1
      objectReference: {fileID: 0}
    - target: {fileID: 4110550130236114, guid: b9fc733a13312c146b4a394c44534c6c, type: 2}
      propertyPath: m_RootOrder
      value: 0
      objectReference: {fileID: 0}
    m_RemovedComponents: []
  m_ParentPrefab: {fileID: 100100000, guid: b9fc733a13312c146b4a394c44534c6c, type: 2}
  m_IsPrefabParent: 0
